{"data":[{"date":"2021-08-15T00:00:00.000Z","home_team":{"abbreviation":"LAC","city":"LA","conference":"West","division":"Pacific","full_name":"LA Clippers","id":13,"name":"Clippers"},"home_team_score":94,"id":465591,"period":4,"postseason":false,"season":2021,"status":"Final","time":"","visitor_team":{"abbreviation":"UTA","city":"Utah","conference":"West","division":"Northwest","full_name":"Utah Jazz","id":29,"name":"Jazz"},"visitor_team_score":90},{"date":"2021-08-16T00:00:00.000Z","home_team":{"abbreviation":"LAC","city":"LA","conference":"West","division":"Pacific","full_name":"LA Clippers","id":13,"name":"Clippers"},"home_team_score":95,"id":467895,"period":4,"postseason":false,"season":2021,"status":"Final","time":"","visitor_team":{"abbreviation":"MEM","city":"Memphis","conference":"West","division":"Southwest","full_name":"Memphis Grizzlies","id":15,"name":"Grizzlies"},"visitor_team_score":104}],"meta":{"current_page":8,"per_page":25,"total_count":177,"total_pages":8},"game":{"date":"2021-08-15T00:00:00.000Z","home_team":{"abbreviation":"LAC","city":"LA","conference":"West","division":"Pacific","full_name":"LA Clippers","id":13,"name":"Clippers"},"home_team_score":94,"id":465591,"period":4,"postseason":false,"season":2021,"status":"Final","time":"","visitor_team":{"abbreviation":"UTA","city":"Utah","conference":"West","division":"Northwest","full_name":"Utah Jazz","id":29,"name":"Jazz"},"visitor_team_score":90}}
{"data":[{"date":"2021-08-15T00:00:00.000Z","home_team":{"abbreviation":"LAC","city":"LA","conference":"West","division":"Pacific","full_name":"LA Clippers","id":13,"name":"Clippers"},"home_team_score":94,"id":465591,"period":4,"postseason":false,"season":2021,"status":"Final","time":"","visitor_team":{"abbreviation":"UTA","city":"Utah","conference":"West","division":"Northwest","full_name":"Utah Jazz","id":29,"name":"Jazz"},"visitor_team_score":90},{"date":"2021-08-16T00:00:00.000Z","home_team":{"abbreviation":"LAC","city":"LA","conference":"West","division":"Pacific","full_name":"LA Clippers","id":13,"name":"Clippers"},"home_team_score":95,"id":467895,"period":4,"postseason":false,"season":2021,"status":"Final","time":"","visitor_team":{"abbreviation":"MEM","city":"Memphis","conference":"West","division":"Southwest","full_name":"Memphis Grizzlies","id":15,"name":"Grizzlies"},"visitor_team_score":104}],"meta":{"current_page":8,"per_page":25,"total_count":177,"total_pages":8},"game":{"date":"2021-08-16T00:00:00.000Z","home_team":{"abbreviation":"LAC","city":"LA","conference":"West","division":"Pacific","full_name":"LA Clippers","id":13,"name":"Clippers"},"home_team_score":95,"id":467895,"period":4,"postseason":false,"season":2021,"status":"Final","time":"","visitor_team":{"abbreviation":"MEM","city":"Memphis","conference":"West","division":"Southwest","full_name":"Memphis Grizzlies","id":15,"name":"Grizzlies"},"visitor_team_score":104}}
